module gitlab.com/pantomath-io/panto

require (
	github.com/BurntSushi/toml v0.3.1 // indirect
	github.com/DATA-DOG/go-sqlmock v1.3.0
	github.com/StackExchange/wmi v0.0.0-20180725035823-b12b22c5341f // indirect
	github.com/beevik/ntp v0.2.0
	github.com/buger/jsonparser v0.0.0-20180910192245-6acdf747ae99 // indirect
	github.com/go-ole/go-ole v1.2.1 // indirect
	github.com/go-redis/redis v6.14.1+incompatible
	github.com/go-sql-driver/mysql v1.4.0
	github.com/go-stack/stack v1.8.0 // indirect
	github.com/golang/protobuf v1.2.0
	github.com/golang/snappy v0.0.0-20180518054509-2e65f85255db // indirect
	github.com/google/go-cmp v0.2.0 // indirect
	github.com/google/pprof v0.0.0-20180926163344-782e5fd74720 // indirect
	github.com/google/protobuf v3.6.1+incompatible // indirect
	github.com/google/uuid v1.0.0
	github.com/googleapis/googleapis v0.0.0-20181001023513-3051b727c0ec // indirect
	github.com/grpc-ecosystem/go-grpc-middleware v1.0.0
	github.com/grpc-ecosystem/grpc-gateway v1.5.0
	github.com/ianlancetaylor/demangle v0.0.0-20180714043527-fcd258a6f0b4 // indirect
	github.com/inconshreveable/mousetrap v1.0.0 // indirect
	github.com/influxdata/influxdb v1.6.3
	github.com/kr/pretty v0.1.0 // indirect
	github.com/lib/pq v1.0.0
	github.com/loderunner/go-ping v0.0.0-20180323132356-0ea0cfb81ce5
	github.com/loderunner/goose v2.4.0+incompatible
	github.com/mattn/go-sqlite3 v1.9.1-0.20180926090220-0a88db3545c4
	github.com/mdempsky/unconvert v0.0.0-20180703203632-1a9a0a0a3594 // indirect
	github.com/mitchellh/go-homedir v1.0.0
	github.com/mongodb/mongo-go-driver v0.0.14
	github.com/mozillazg/go-slugify v0.2.0
	github.com/mozillazg/go-unidecode v0.1.0 // indirect
	github.com/onsi/gomega v1.4.2 // indirect
	github.com/op/go-logging v0.0.0-20160315200505-970db520ece7
	github.com/peterh/liner v1.1.0
	github.com/pmezard/go-difflib v1.0.0 // indirect
	github.com/rs/cors v1.5.0
	github.com/shirou/gopsutil v2.17.12+incompatible
	github.com/shirou/w32 v0.0.0-20160930032740-bb4de0191aa4 // indirect
	github.com/spf13/cobra v0.0.3
	github.com/spf13/pflag v1.0.2
	github.com/spf13/viper v1.2.0
	github.com/stretchr/testify v1.2.2 // indirect
	github.com/tidwall/pretty v0.0.0-20180105212114-65a9db5fad51 // indirect
	github.com/tomasen/fcgi_client v0.0.0-20180423082037-2bb3d819fd19
	github.com/xdg/scram v0.0.0-20180814205039-7eeb5667e42c // indirect
	github.com/xdg/stringprep v1.0.0 // indirect
	gitlab.com/pantomath-io/wrapany v0.0.0-20180416192657-466d0321bbf9
	golang.org/x/arch v0.0.0-20180920145803-b19384d3c130 // indirect
	golang.org/x/crypto v0.0.0-20180910181607-0e37d006457b // indirect
	golang.org/x/net v0.0.0-20180926154720-4dfa2610cdf3
	golang.org/x/sys v0.0.0-20180926160741-c2ed4eda69e7 // indirect
	golang.org/x/tools v0.0.0-20180928181343-b3c0be4c978b // indirect
	google.golang.org/appengine v1.2.0 // indirect
	google.golang.org/genproto v0.0.0-20180925191851-0e822944c569
	google.golang.org/grpc v1.15.0
	gopkg.in/alexcesaro/quotedprintable.v3 v3.0.0-20150716171945-2caba252f4dc // indirect
	gopkg.in/check.v1 v1.0.0-20180628173108-788fd7840127 // indirect
	gopkg.in/gomail.v2 v2.0.0-20160411212932-81ebce5c23df
	honnef.co/go/tools v0.0.0-20180920025451-e3ad64cb4ed3 // indirect
	mvdan.cc/unparam v0.0.0-20180912072546-8f80bf61b2ce // indirect
)
